<?xml version="1.0" encoding="utf-8"?>
<!DOCTYPE eagle SYSTEM "eagle.dtd">
<eagle version="9.6.2">
<drawing>
<settings>
<setting alwaysvectorfont="no"/>
<setting keepoldvectorfont="yes"/>
<setting verticaltext="up"/>
</settings>
<grid distance="0.1" unitdist="inch" unit="inch" style="lines" multiple="1" display="yes" altdistance="0.01" altunitdist="inch" altunit="inch"/>
<layers>
<layer number="1" name="Top" color="4" fill="1" visible="yes" active="yes"/>
<layer number="16" name="Bottom" color="1" fill="1" visible="yes" active="yes"/>
<layer number="17" name="Pads" color="2" fill="1" visible="yes" active="yes"/>
<layer number="18" name="Vias" color="2" fill="1" visible="yes" active="yes"/>
<layer number="19" name="Unrouted" color="6" fill="1" visible="yes" active="yes"/>
<layer number="20" name="Dimension" color="15" fill="1" visible="yes" active="yes"/>
<layer number="21" name="tPlace" color="7" fill="1" visible="yes" active="yes"/>
<layer number="22" name="bPlace" color="7" fill="1" visible="yes" active="yes"/>
<layer number="23" name="tOrigins" color="15" fill="1" visible="yes" active="yes"/>
<layer number="24" name="bOrigins" color="15" fill="1" visible="yes" active="yes"/>
<layer number="25" name="tNames" color="7" fill="1" visible="yes" active="yes"/>
<layer number="26" name="bNames" color="7" fill="1" visible="yes" active="yes"/>
<layer number="27" name="tValues" color="7" fill="1" visible="yes" active="yes"/>
<layer number="28" name="bValues" color="7" fill="1" visible="yes" active="yes"/>
<layer number="29" name="tStop" color="7" fill="3" visible="yes" active="yes"/>
<layer number="30" name="bStop" color="7" fill="6" visible="no" active="yes"/>
<layer number="31" name="tCream" color="7" fill="4" visible="yes" active="yes"/>
<layer number="32" name="bCream" color="7" fill="5" visible="no" active="yes"/>
<layer number="33" name="tFinish" color="6" fill="3" visible="no" active="yes"/>
<layer number="34" name="bFinish" color="6" fill="6" visible="no" active="yes"/>
<layer number="35" name="tGlue" color="7" fill="4" visible="no" active="yes"/>
<layer number="36" name="bGlue" color="7" fill="5" visible="no" active="yes"/>
<layer number="37" name="tTest" color="7" fill="1" visible="no" active="yes"/>
<layer number="38" name="bTest" color="7" fill="1" visible="no" active="yes"/>
<layer number="39" name="tKeepout" color="4" fill="11" visible="yes" active="yes"/>
<layer number="40" name="bKeepout" color="1" fill="11" visible="yes" active="yes"/>
<layer number="41" name="tRestrict" color="4" fill="10" visible="yes" active="yes"/>
<layer number="42" name="bRestrict" color="1" fill="10" visible="yes" active="yes"/>
<layer number="43" name="vRestrict" color="2" fill="10" visible="yes" active="yes"/>
<layer number="44" name="Drills" color="7" fill="1" visible="no" active="yes"/>
<layer number="45" name="Holes" color="7" fill="1" visible="no" active="yes"/>
<layer number="46" name="Milling" color="3" fill="1" visible="no" active="yes"/>
<layer number="47" name="Measures" color="7" fill="1" visible="no" active="yes"/>
<layer number="48" name="Document" color="7" fill="1" visible="yes" active="yes"/>
<layer number="49" name="Reference" color="7" fill="1" visible="yes" active="yes"/>
<layer number="51" name="tDocu" color="14" fill="1" visible="yes" active="yes"/>
<layer number="52" name="bDocu" color="7" fill="1" visible="yes" active="yes"/>
<layer number="90" name="Modules" color="5" fill="1" visible="yes" active="yes"/>
<layer number="91" name="Nets" color="2" fill="1" visible="yes" active="yes"/>
<layer number="92" name="Busses" color="1" fill="1" visible="yes" active="yes"/>
<layer number="93" name="Pins" color="2" fill="1" visible="yes" active="yes"/>
<layer number="94" name="Symbols" color="4" fill="1" visible="yes" active="yes"/>
<layer number="95" name="Names" color="7" fill="1" visible="yes" active="yes"/>
<layer number="96" name="Values" color="7" fill="1" visible="yes" active="yes"/>
<layer number="97" name="Info" color="7" fill="1" visible="yes" active="yes"/>
<layer number="98" name="Guide" color="6" fill="1" visible="yes" active="yes"/>
</layers>
<library>
<packages>
<package name="LESD5D5.0CT1G">
<text x="-0.254" y="-1.016" size="1.27" layer="25">.</text>
<smd name="1" x="0.2" y="-0.1" dx="0.48" dy="0.4" layer="1"/>
<smd name="2" x="2" y="-0.1" dx="0.48" dy="0.4" layer="1"/>
<wire x1="0.21081875" y1="-0.09525" x2="0.21081875" y2="0.448309375" width="0.0762" layer="21"/>
<wire x1="0.21081875" y1="0.448309375" x2="2" y2="0.448309375" width="0.0762" layer="21"/>
<wire x1="2" y1="0.448309375" x2="2" y2="-0.63373125" width="0.0762" layer="51"/>
<wire x1="2" y1="-0.63373125" x2="0.212090625" y2="-0.63373125" width="0.0762" layer="21"/>
<wire x1="0.212090625" y1="-0.63373125" x2="0.212090625" y2="-0.092709375" width="0.0762" layer="21"/>
<wire x1="0.212090625" y1="-0.092709375" x2="0.213359375" y2="-0.092709375" width="0.0762" layer="21"/>
<text x="0" y="1.27" size="1.27" layer="25">&gt;NAME</text>
<text x="0" y="-2.54" size="1.27" layer="27">&gt;VALUE</text>
<wire x1="0.21081875" y1="0.448309375" x2="2" y2="0.448309375" width="0.0762" layer="51"/>
<wire x1="2" y1="0.448309375" x2="2" y2="-0.63373125" width="0.0762" layer="21"/>
<wire x1="2" y1="0.448309375" x2="2" y2="-0.63373125" width="0.0762" layer="51"/>
<wire x1="0.21081875" y1="-0.09525" x2="0.21081875" y2="0.448309375" width="0.0762" layer="51"/>
<wire x1="0.212090625" y1="-0.63373125" x2="0.212090625" y2="-0.092709375" width="0.0762" layer="51"/>
<wire x1="2" y1="-0.63373125" x2="0.212090625" y2="-0.63373125" width="0.0762" layer="51"/>
</package>
</packages>
<symbols>
<symbol name="LESD5D5.0CT1G">
<polygon width="0.1524" layer="94">
<vertex x="5.1562" y="2.356040625"/>
<vertex x="5.1562" y="-2.356040625"/>
<vertex x="7.512240625" y="0"/>
</polygon>
<polygon width="0.1524" layer="94">
<vertex x="7.727759375" y="0"/>
<vertex x="10.0838" y="-2.356040625"/>
<vertex x="10.0838" y="2.356040625"/>
</polygon>
<wire x1="7.62" y1="2.54" x2="7.62" y2="-2.54" width="0.254" layer="94"/>
<wire x1="7.62" y1="-2.54" x2="5.08" y2="-5.08" width="0.254" layer="94"/>
<wire x1="7.62" y1="2.54" x2="10.16" y2="5.08" width="0.254" layer="94"/>
<pin name="1" x="0" y="0" visible="pad" length="middle"/>
<pin name="2" x="15.24" y="0" visible="pad" length="middle" rot="R180"/>
</symbol>
</symbols>
<devicesets>
<deviceset name="LESD5D5.0CT1G">
<description> &lt;a href="https://pricing.snapeda.com/parts/LESD5D5.0CT1G/Leshan%20Radio%20Co./view-part?ref=eda"&gt;Check prices&lt;/a&gt;</description>
<gates>
<gate name="G$1" symbol="LESD5D5.0CT1G" x="0" y="0"/>
</gates>
<devices>
<device name="" package="LESD5D5.0CT1G">
<connects>
<connect gate="G$1" pin="1" pad="1"/>
<connect gate="G$1" pin="2" pad="2"/>
</connects>
<technologies>
<technology name="">
<attribute name="AVAILABILITY" value="Not in stock"/>
<attribute name="DESCRIPTION" value=" Transient Voltage Suppressors for ESD Protection "/>
<attribute name="MF" value="Leshan Radio Co."/>
<attribute name="MP" value="LESD5D5.0CT1G"/>
<attribute name="PACKAGE" value="None"/>
<attribute name="PRICE" value="None"/>
</technology>
</technologies>
</device>
</devices>
</deviceset>
</devicesets>
</library>
</drawing>
</eagle>
